threads,real,user,sys,memory
1,5.46,5.42,0.03,31736
1,5.49,5.45,0.03,31736
1,5.31,5.26,0.04,31740
1,5.27,5.22,0.03,31736
1,5.27,5.22,0.03,31736
1,5.50,5.45,0.03,31736
1,5.50,5.45,0.03,31736
1,5.55,5.50,0.04,31740
1,5.53,5.48,0.04,31796
2,3.38,6.22,0.04,31736
2,3.62,7.09,0.04,31736
2,3.48,6.52,0.03,31800
2,3.62,7.14,0.03,31736
2,3.28,6.02,0.03,31740
2,3.57,7.00,0.04,31800
2,3.37,6.25,0.03,31740
2,3.51,6.45,0.04,31740
2,3.36,6.28,0.03,31736
4,3.35,12.71,0.05,31744
4,3.14,11.94,0.05,31808
4,3.21,11.99,0.04,31804
4,3.01,11.37,0.04,31736
4,3.25,12.22,0.04,31804
4,3.06,11.23,0.04,31808
4,3.15,11.58,0.04,31744
4,3.03,11.06,0.04,31808
4,3.13,11.91,0.04,31744
5,2.95,13.96,0.03,31816
5,3.04,14.01,0.05,31816
5,3.13,14.85,0.05,31748
5,3.16,14.35,0.04,31748
5,3.12,14.39,0.04,31812
5,3.14,14.49,0.04,31748
5,3.14,13.93,0.05,31736
5,3.14,14.09,0.04,31808
5,3.06,13.48,0.04,31752
8,2.99,22.87,0.04,31760
8,3.08,23.04,0.04,31760
8,2.89,21.87,0.04,31824
8,3.06,23.13,0.04,31764
8,2.95,22.11,0.04,31736
8,2.99,22.73,0.05,31824
8,2.89,22.23,0.04,31760
8,3.09,23.53,0.05,31736
8,2.90,21.29,0.05,31760
10,2.95,28.08,0.04,31768
10,2.71,24.61,0.05,31764
10,2.94,27.66,0.06,31768
10,2.91,26.59,0.05,31832
10,2.88,27.26,0.05,31768
10,2.98,28.05,0.05,31768
10,2.92,26.89,0.05,31768
10,2.96,27.05,0.05,31736
10,2.82,26.71,0.05,31832
16,2.84,41.98,0.07,31796
16,2.74,41.11,0.06,31736
16,2.75,40.87,0.07,31856
16,2.73,40.81,0.07,31792
16,2.85,42.13,0.08,31792
16,2.67,39.21,0.07,31792
16,2.77,41.16,0.07,31860
16,2.77,41.52,0.08,31796
16,2.80,41.60,0.07,31852
20,2.74,39.90,0.07,31812
20,2.74,40.43,0.08,31812
20,2.71,40.13,0.07,31868
20,2.77,40.46,0.07,31812
20,2.75,40.70,0.06,31748
20,2.77,40.76,0.06,31812
20,2.72,40.71,0.08,31872
20,2.76,40.64,0.08,31812
20,2.90,42.66,0.07,31744
25,2.78,42.02,0.07,31764
25,2.70,40.96,0.06,31764
25,2.76,41.28,0.07,31828
25,2.74,41.08,0.07,31832
25,2.75,41.02,0.13,31888
25,2.76,40.79,0.08,31828
25,2.76,40.42,0.08,31888
25,2.82,42.69,0.07,31828
25,2.74,40.71,0.05,31832
32,2.83,43.23,0.06,31856
32,2.64,40.25,0.05,31856
32,2.69,40.42,0.06,31856
32,2.66,40.12,0.07,31860
32,2.67,40.74,0.07,31856
32,2.74,41.12,0.05,31856
32,2.64,39.78,0.06,31860
32,2.70,40.92,0.07,31860
32,2.69,40.61,0.06,31856
40,2.70,41.32,0.06,31892
40,2.69,41.34,0.04,31952
40,2.63,39.56,0.07,31888
40,2.70,41.35,0.06,31892
40,2.66,40.77,0.05,31888
40,2.69,41.32,0.06,31948
40,2.69,41.24,0.05,31888
40,2.68,40.92,0.05,31952
40,2.70,41.51,0.05,31888
50,2.69,40.86,0.05,31988
50,2.71,41.73,0.02,31928
50,2.67,41.25,0.01,31864
50,2.66,40.87,0.01,31928
50,2.65,40.76,0.02,31992
50,2.65,40.96,0.02,31992
50,2.63,40.70,0.01,31928
50,2.70,41.77,0.02,31996
50,2.71,41.38,0.01,31996
80,2.63,40.77,0.02,32048
80,2.66,41.27,0.01,32048
80,2.63,40.76,0.01,32048
80,2.68,41.44,0.02,32052
80,2.65,41.42,0.01,32048
80,2.58,40.03,0.01,32048
80,2.63,40.79,0.01,32052
80,2.63,40.99,0.02,32052
80,2.60,40.27,0.01,32048
100,2.56,39.52,0.02,32132
100,2.56,39.85,0.01,32128
100,2.60,40.49,0.01,32128
100,2.64,41.05,0.02,32192
100,2.65,41.31,0.01,32132
100,2.58,40.11,0.01,32188
100,2.54,39.45,0.01,32188
100,2.62,40.66,0.01,32068
100,2.61,40.76,0.02,32196
125,2.61,40.69,0.01,32292
125,2.53,39.37,0.01,32232
125,2.48,38.60,0.02,32228
125,2.58,40.38,0.01,32292
125,2.58,40.38,0.02,32232
125,2.59,40.37,0.02,32232
125,2.54,39.52,0.01,32228
125,2.65,41.44,0.01,32164
125,2.63,41.09,0.01,32292
200,2.46,38.52,0.01,32468
200,2.46,38.41,0.02,32536
200,2.58,40.07,0.02,32528
200,2.53,39.40,0.02,32592
200,2.52,39.31,0.01,32528
200,2.45,38.25,0.01,32532
200,2.53,39.40,0.02,32588
200,2.52,39.33,0.01,32532
200,2.44,38.02,0.01,32532
250,2.49,38.99,0.01,32668
250,2.42,37.81,0.02,32732
250,2.44,38.15,0.01,32792
250,2.46,38.51,0.01,32792
250,2.51,39.32,0.01,32796
250,2.52,39.34,0.02,32796
250,2.50,38.79,0.02,32732
250,2.45,38.24,0.01,32732
250,2.47,38.67,0.02,32732
400,2.49,38.91,0.01,33336
400,2.40,37.44,0.01,33396
400,2.50,39.06,0.02,33336
400,2.49,38.95,0.02,33332
400,2.45,38.39,0.02,33392
400,2.45,38.35,0.02,33400
400,2.47,38.58,0.02,33336
400,2.44,38.17,0.01,33336
400,2.47,38.69,0.01,33336
500,2.42,37.73,0.01,33800
500,2.43,37.96,0.02,33800
500,2.43,37.97,0.02,33740
500,2.45,38.22,0.02,33804
500,2.44,38.05,0.02,33800
500,2.39,37.46,0.02,33740
500,2.47,38.64,0.03,33740
500,2.42,37.80,0.01,33804
500,2.47,38.69,0.02,33740
